*** Life<ConwayCell> 15x1 ***

Generation = 0, Population = 11.
*
.
*
*
*
*
.
.
*
.
*
*
*
*
*

Generation = 2, Population = 1.
.
.
.
.
.
.
.
.
.
.
.
.
*
.
.

*** Life<ConwayCell> 14x13 ***

Generation = 0, Population = 9.
.............
*............
.............
.........*...
...........*.
*............
...........*.
.............
.............
..*........*.
.*...........
.............
*............
.............

Generation = 5, Population = 0.
.............
.............
.............
.............
.............
.............
.............
.............
.............
.............
.............
.............
.............
.............

*** Life<ConwayCell> 3x3 ***

Generation = 0, Population = 4.
.**
.*.
*..

Generation = 2, Population = 5.
*.*
*.*
.*.

Generation = 4, Population = 2.
...
.*.
.*.

Generation = 6, Population = 0.
...
...
...

Generation = 8, Population = 0.
...
...
...

Generation = 10, Population = 0.
...
...
...

Generation = 12, Population = 0.
...
...
...

*** Life<ConwayCell> 8x8 ***

Generation = 0, Population = 5.
*.......
........
........
..*.....
....*...
........
.*......
*.......

Generation = 14, Population = 0.
........
........
........
........
........
........
........
........

*** Life<ConwayCell> 9x3 ***

Generation = 0, Population = 4.
...
..*
.*.
..*
...
..*
...
...
...

Generation = 13, Population = 0.
...
...
...
...
...
...
...
...
...

*** Life<ConwayCell> 2x11 ***

Generation = 0, Population = 7.
*..**....**
...*.*.....

Generation = 3, Population = 4.
...**......
...**......

Generation = 6, Population = 4.
...**......
...**......

Generation = 9, Population = 4.
...**......
...**......

*** Life<ConwayCell> 17x3 ***

Generation = 0, Population = 8.
**.
...
...
**.
...
...
..*
..*
..*
...
...
...
...
...
...
...
..*

Generation = 2, Population = 0.
...
...
...
...
...
...
...
...
...
...
...
...
...
...
...
...
...

*** Life<ConwayCell> 1x15 ***

Generation = 0, Population = 14.
***********.***

Generation = 5, Population = 1.
.....*.........

Generation = 10, Population = 0.
...............

Generation = 15, Population = 0.
...............

*** Life<ConwayCell> 18x4 ***

Generation = 0, Population = 15.
*.**
....
....
..*.
**..
..*.
....
.*..
....
...*
*...
....
....
*..*
..*.
..*.
*...
....

Generation = 1, Population = 8.
....
....
....
.*..
.**.
.*..
....
....
....
....
....
....
....
....
.***
.*..
....
....

Generation = 2, Population = 11.
....
....
....
.**.
***.
.**.
....
....
....
....
....
....
....
..*.
.**.
.*..
....
....

Generation = 3, Population = 12.
....
....
....
*.*.
*..*
*.*.
....
....
....
....
....
....
....
.**.
.**.
.**.
....
....

Generation = 4, Population = 11.
....
....
....
.*..
*.**
.*..
....
....
....
....
....
....
....
.**.
*..*
.**.
....
....

*** Life<ConwayCell> 17x2 ***

Generation = 0, Population = 1.
..
..
..
..
..
..
..
..
..
.*
..
..
..
..
..
..
..

Generation = 3, Population = 0.
..
..
..
..
..
..
..
..
..
..
..
..
..
..
..
..
..

Generation = 6, Population = 0.
..
..
..
..
..
..
..
..
..
..
..
..
..
..
..
..
..

Generation = 9, Population = 0.
..
..
..
..
..
..
..
..
..
..
..
..
..
..
..
..
..

*** Life<ConwayCell> 9x5 ***

Generation = 0, Population = 11.
.....
*..*.
...*.
.....
*....
*.*.*
*....
*.*..
..*..

Generation = 1, Population = 5.
.....
.....
.....
.....
.*...
*....
*..*.
.....
.*...

Generation = 2, Population = 2.
.....
.....
.....
.....
.....
**...
.....
.....
.....

Generation = 3, Population = 0.
.....
.....
.....
.....
.....
.....
.....
.....
.....

Generation = 4, Population = 0.
.....
.....
.....
.....
.....
.....
.....
.....
.....

Generation = 5, Population = 0.
.....
.....
.....
.....
.....
.....
.....
.....
.....

*** Life<ConwayCell> 10x8 ***

Generation = 0, Population = 3.
*.......
.......*
.*......
........
........
........
........
........
........
........

Generation = 1, Population = 0.
........
........
........
........
........
........
........
........
........
........

*** Life<ConwayCell> 10x5 ***

Generation = 0, Population = 6.
.....
.....
*....
.*.*.
.....
.....
.**..
....*
.....
.....

Generation = 9, Population = 0.
.....
.....
.....
.....
.....
.....
.....
.....
.....
.....

Generation = 18, Population = 0.
.....
.....
.....
.....
.....
.....
.....
.....
.....
.....

*** Life<ConwayCell> 8x16 ***

Generation = 0, Population = 12.
................
.........*......
.*..............
*........**...*.
..*......**.....
..........*.....
................
.*........*.....

Generation = 8, Population = 5.
................
................
.........**.....
.........*.*....
..........*.....
................
................
................

*** Life<ConwayCell> 8x15 ***

Generation = 0, Population = 17.
........*......
.....*.......*.
..*..........*.
......*....*...
......*.****...
........*......
*..............
.....*.*.....*.

Generation = 11, Population = 4.
...............
...............
...............
............**.
.......*.......
.......*.......
...............
...............

*** Life<ConwayCell> 20x17 ***

Generation = 0, Population = 5.
.................
.................
......*..........
.................
.................
.................
........*........
.................
.................
.................
.................
.................
.................
.............*...
........*........
.................
.................
.................
.................
..*..............

Generation = 3, Population = 0.
.................
.................
.................
.................
.................
.................
.................
.................
.................
.................
.................
.................
.................
.................
.................
.................
.................
.................
.................
.................

Generation = 6, Population = 0.
.................
.................
.................
.................
.................
.................
.................
.................
.................
.................
.................
.................
.................
.................
.................
.................
.................
.................
.................
.................

*** Life<ConwayCell> 13x18 ***

Generation = 0, Population = 8.
..................
..*...............
..................
..................
..................
..................
..................
..................
*..*.........*....
*.......*.....*...
..................
..................
....*.............

Generation = 2, Population = 0.
..................
..................
..................
..................
..................
..................
..................
..................
..................
..................
..................
..................
..................

Generation = 4, Population = 0.
..................
..................
..................
..................
..................
..................
..................
..................
..................
..................
..................
..................
..................

Generation = 6, Population = 0.
..................
..................
..................
..................
..................
..................
..................
..................
..................
..................
..................
..................
..................

Generation = 8, Population = 0.
..................
..................
..................
..................
..................
..................
..................
..................
..................
..................
..................
..................
..................

Generation = 10, Population = 0.
..................
..................
..................
..................
..................
..................
..................
..................
..................
..................
..................
..................
..................

*** Life<ConwayCell> 12x1 ***

Generation = 0, Population = 9.
*
*
*
*
*
*
*
.
.
*
.
*

Generation = 2, Population = 3.
.
.
*
*
*
.
.
.
.
.
.
.

Generation = 4, Population = 0.
.
.
.
.
.
.
.
.
.
.
.
.

Generation = 6, Population = 0.
.
.
.
.
.
.
.
.
.
.
.
.

Generation = 8, Population = 0.
.
.
.
.
.
.
.
.
.
.
.
.

Generation = 10, Population = 0.
.
.
.
.
.
.
.
.
.
.
.
.

Generation = 12, Population = 0.
.
.
.
.
.
.
.
.
.
.
.
.

Generation = 14, Population = 0.
.
.
.
.
.
.
.
.
.
.
.
.

Generation = 16, Population = 0.
.
.
.
.
.
.
.
.
.
.
.
.

Generation = 18, Population = 0.
.
.
.
.
.
.
.
.
.
.
.
.

Generation = 20, Population = 0.
.
.
.
.
.
.
.
.
.
.
.
.

*** Life<ConwayCell> 13x12 ***

Generation = 0, Population = 12.
.....*......
............
.....*......
**..........
........**..
*.........*.
....*.......
...........*
............
..*.........
............
.........*..
............

Generation = 9, Population = 0.
............
............
............
............
............
............
............
............
............
............
............
............
............

*** Life<ConwayCell> 12x5 ***

Generation = 0, Population = 14.
*...*
*.*.*
.....
.....
**...
.....
.**..
..*..
*..*.
.....
*....
....*

Generation = 4, Population = 4.
.....
.....
.....
.....
.....
.....
..*..
.***.
.....
.....
.....
.....

*** Life<ConwayCell> 2x8 ***

Generation = 0, Population = 10.
**.*.*.*
.****..*

Generation = 17, Population = 4.
**......
**......

*** Life<ConwayCell> 17x18 ***

Generation = 0, Population = 14.
........*.........
.*................
*.................
..................
.........*........
..................
*.................
..................
..........*.......
............*.....
..................
...*..............
..................
..................
..........*.......
............*.*...
.*.......*....*...

Generation = 3, Population = 0.
..................
..................
..................
..................
..................
..................
..................
..................
..................
..................
..................
..................
..................
..................
..................
..................
..................

*** Life<ConwayCell> 1x11 ***

Generation = 0, Population = 9.
*****..****

Generation = 6, Population = 0.
...........

Generation = 12, Population = 0.
...........

*** Life<ConwayCell> 18x6 ***

Generation = 0, Population = 5.
......
......
......
*.....
......
......
......
......
......
.**...
......
....*.
......
......
.*....
......
......
......

Generation = 4, Population = 0.
......
......
......
......
......
......
......
......
......
......
......
......
......
......
......
......
......
......

Generation = 8, Population = 0.
......
......
......
......
......
......
......
......
......
......
......
......
......
......
......
......
......
......

Generation = 12, Population = 0.
......
......
......
......
......
......
......
......
......
......
......
......
......
......
......
......
......
......

*** Life<ConwayCell> 17x8 ***

Generation = 0, Population = 16.
.*....*.
......*.
...*....
.....*..
.....**.
...*....
..*.....
.*...*.*
........
........
.....*..
........
.......*
*.......
.....*..
........
........

Generation = 8, Population = 6.
........
........
.....*..
....*.*.
....*.*.
.....*..
........
........
........
........
........
........
........
........
........
........
........

*** Life<ConwayCell> 18x4 ***

Generation = 0, Population = 8.
**..
....
....
....
....
...*
....
....
....
....
...*
....
....
*.*.
.*..
....
....
.*..

Generation = 6, Population = 0.
....
....
....
....
....
....
....
....
....
....
....
....
....
....
....
....
....
....

Generation = 12, Population = 0.
....
....
....
....
....
....
....
....
....
....
....
....
....
....
....
....
....
....

*** Life<ConwayCell> 19x20 ***

Generation = 0, Population = 17.
**.....*............
..*.................
....................
..................*.
.......*............
....................
....................
..................*.
....................
...........*...*.*..
....................
....................
..............**....
...*................
....................
....................
........*...*.......
....................
...*....*...........

Generation = 13, Population = 0.
....................
....................
....................
....................
....................
....................
....................
....................
....................
....................
....................
....................
....................
....................
....................
....................
....................
....................
....................

*** Life<ConwayCell> 9x8 ***

Generation = 0, Population = 16.
......*.
..*.....
.*.**...
**......
.*.*.*..
....*...
*.**....
........
....*.*.

Generation = 4, Population = 16.
.**.....
.*.*....
.*.**...
....**..
...*..*.
.*......
.*...*..
...**...
........

Generation = 8, Population = 16.
........
****.*..
..*.***.
...*.**.
..**....
...*....
....*...
........
........
