28

15 1
18
0 0
4 0
11 0
5 0
14 0
3 0
14 0
8 0
11 0
0 0
0 0
13 0
14 0
2 0
4 0
10 0
12 0
11 0
2 2

14 13
9
6 11
12 0
5 0
4 11
9 11
3 9
10 1
9 2
1 0
7 5

3 3
4
0 1
0 2
1 1
2 0
12 2

8 8
5
6 1
3 2
4 4
0 0
7 0
15 14

9 3
5
3 2
2 1
1 2
1 2
5 2
16 13

2 11
9
0 0
1 3
0 3
0 9
0 0
1 5
0 10
1 5
0 4
10 3

17 3
8
3 1
0 0
7 2
8 2
3 0
0 1
6 2
16 2
3 2

1 15
19
0 3
0 0
0 7
0 14
0 12
0 0
0 13
0 2
0 3
0 2
0 10
0 9
0 8
0 6
0 5
0 1
0 1
0 4
0 6
17 5

18 4
17
0 3
0 0
0 3
13 0
4 0
16 0
16 0
15 2
3 2
5 2
14 2
13 3
7 1
10 0
4 1
0 2
9 3
4 1

17 2
1
9 1
9 3

9 5
11
5 4
4 0
7 0
5 2
2 3
6 0
8 2
5 0
7 2
1 3
1 0
5 1

10 8
3
1 7
2 1
0 0
1 1

10 5
9
3 1
2 0
3 3
6 2
6 2
3 1
7 4
6 1
7 4
18 9

8 16
13
3 14
3 9
4 9
5 10
3 0
7 10
2 1
4 10
1 9
7 1
3 10
4 2
3 0
14 8

8 15
17
7 13
4 6
3 11
4 11
0 8
4 8
5 8
1 13
3 6
2 13
4 10
7 7
6 0
2 2
4 9
1 5
7 5
20 11

20 17
6
19 2
13 13
19 2
14 8
6 8
2 6
8 3

13 18
8
12 4
8 3
8 0
1 2
9 0
8 13
9 8
9 14
11 2

12 1
18
1 0
11 0
11 0
3 0
9 0
0 0
4 0
2 0
1 0
0 0
5 0
9 0
5 0
2 0
6 0
9 0
6 0
1 0
20 2

13 12
14
6 4
5 0
3 0
3 1
4 8
9 2
4 9
7 11
7 11
2 5
9 2
5 10
11 9
0 5
12 9

12 5
15
7 2
1 4
0 0
0 4
8 0
6 2
11 4
6 2
4 0
6 1
4 1
8 3
10 0
1 2
1 0
4 4

2 8
14
0 5
1 2
1 1
1 4
0 1
1 7
1 1
0 5
0 7
1 7
0 3
1 3
0 0
0 5
20 17

17 18
15
16 14
8 10
9 12
16 9
14 10
4 9
2 0
0 8
15 14
15 12
6 0
16 1
1 1
16 14
11 3
5 3

1 11
19
0 7
0 3
0 0
0 10
0 2
0 1
0 3
0 4
0 8
0 3
0 10
0 9
0 0
0 9
0 9
0 3
0 4
0 9
0 10
14 6

18 6
5
9 1
9 2
14 1
11 4
3 0
12 4

17 8
16
7 7
3 5
7 5
5 3
7 1
10 5
4 6
2 3
12 7
6 2
4 5
0 1
14 5
1 6
13 0
0 6
10 8

18 4
8
13 2
10 3
14 1
17 1
0 1
0 0
5 3
13 0
12 6

19 20
18
16 8
9 15
0 0
7 18
18 3
12 15
12 14
3 18
9 17
1 2
0 0
0 1
9 11
13 3
18 8
16 12
0 7
4 7
13 13

9 8
17
6 2
4 5
3 1
2 3
8 4
2 1
4 3
0 6
1 2
3 0
8 6
5 4
6 3
6 0
2 4
4 1
3 1
11 4
